<?xml version="1.0" encoding="UTF-8" standalone="no"?>
<!-- Created with Inkscape (http://www.inkscape.org/) -->

<svg
   xmlns:dc="http://purl.org/dc/elements/1.1/"
   xmlns:cc="http://creativecommons.org/ns#"
   xmlns:rdf="http://www.w3.org/1999/02/22-rdf-syntax-ns#"
   xmlns:svg="http://www.w3.org/2000/svg"
   xmlns="http://www.w3.org/2000/svg"
   xmlns:sodipodi="http://sodipodi.sourceforge.net/DTD/sodipodi-0.dtd"
   xmlns:inkscape="http://www.inkscape.org/namespaces/inkscape"
   width="210mm"
   height="297mm"
   viewBox="0 0 210 297"
   version="1.1"
   id="svg8"
   inkscape:version="0.92.5 (2060ec1f9f, 2020-04-08)"
   sodipodi:docname="a_title_picture.svg">
  <defs
     id="defs2" />
  <sodipodi:namedview
     id="base"
     pagecolor="#ffffff"
     bordercolor="#666666"
     borderopacity="1.0"
     inkscape:pageopacity="0.0"
     inkscape:pageshadow="2"
     inkscape:zoom="0.98633216"
     inkscape:cx="895.64241"
     inkscape:cy="593.48658"
     inkscape:document-units="mm"
     inkscape:current-layer="layer2"
     showgrid="false"
     inkscape:window-width="2560"
     inkscape:window-height="1416"
     inkscape:window-x="1920"
     inkscape:window-y="24"
     inkscape:window-maximized="0" />
  <metadata
     id="metadata5">
    <rdf:RDF>
      <cc:Work
         rdf:about="">
        <dc:format>image/svg+xml</dc:format>
        <dc:type
           rdf:resource="http://purl.org/dc/dcmitype/StillImage" />
        <dc:title />
      </cc:Work>
    </rdf:RDF>
  </metadata>
  <g
     inkscape:groupmode="layer"
     id="layer2"
     inkscape:label="Vector">
    <rect
       style="display:inline;opacity:1;fill:#ffffff;fill-opacity:1;stroke:#ffffff;stroke-width:0.72844368;stroke-opacity:1"
       id="rect896"
       width="209.37791"
       height="296.49625"
       x="0.30150336"
       y="0.21070664" />
    <g
       id="g902"
       transform="translate(5.0727852,6.1812528)">
      <path
         sodipodi:nodetypes="ssssccssssccs"
         inkscape:connector-curvature="0"
         id="path4570"
         d="m 84.28869,75.69494 c -1.743766,2.820151 -3.155307,11.826824 5.536345,16.574953 7.271986,3.972584 15.228915,6.863621 22.528385,11.678767 13.56396,8.94757 3.86829,23.08299 -5.88226,23.45814 -8.593481,0.33064 -14.871195,0.0908 -24.763449,-11.03218 v 7.45391 c 6.068033,3.71868 16.681399,6.82804 24.828809,6.09788 19.93853,-1.78684 20.93554,-20.87166 10.10901,-28.64396 C 112.75802,98.49163 97.576874,91.546651 94.242648,90.004035 90.284841,88.172913 86.555586,81.918998 88.291495,77.617816 92.638164,66.847775 110.96552,67.712879 121.79331,79.964737 V 74.025489 C 116.6832,69.486484 92.70282,62.086973 84.28869,75.69494 Z"
         style="fill:#275274;fill-opacity:1;stroke:#275274;stroke-width:0.26458332px;stroke-linecap:butt;stroke-linejoin:miter;stroke-opacity:1" />
      <path
         sodipodi:nodetypes="ssssssssss"
         inkscape:connector-curvature="0"
         id="path889"
         d="m 98.823928,134.39573 c -17.414273,-0.0898 -32.045103,13.18076 -32.340725,29.66136 -0.358714,19.99787 17.78543,30.82555 34.450927,30.84706 16.93408,0.0219 32.15814,-12.398 32.22187,-30.75213 0.0649,-18.67692 -16.68053,-29.6653 -34.332072,-29.75629 z m 0,3.03493 c 18.097882,0.0397 27.853762,11.60531 28.642072,26.8162 0.703,13.56468 -10.2845,28.27812 -26.53187,27.81201 -15.716258,-0.45088 -28.873727,-9.12848 -28.428404,-28.00178 0.344795,-14.61283 10.780173,-26.66053 26.318202,-26.62643 z"
         style="fill:#000000;fill-opacity:1;stroke:#010000;stroke-width:0.26458332px;stroke-linecap:butt;stroke-linejoin:miter;stroke-opacity:1" />
      <path
         sodipodi:nodetypes="cccsccccccccccc"
         inkscape:connector-curvature="0"
         id="path885"
         d="m 70.746051,90.246946 c 0.895596,0.85315 1.125195,1.630917 1.055468,3.316451 0.06708,12.076133 -0.143701,23.874423 0.201228,36.228413 1.53633,14.74795 11.507249,25.78929 29.378803,25.81384 9.19946,0.0126 27.22595,-2.41397 29.37568,-25.7846 l 0.90141,-33.905689 c 0.0796,-2.142032 0.57653,-4.01465 1.39153,-5.668415 h -6.50926 c 0.81137,1.432529 1.40663,3.19572 1.44865,5.551472 -0.4042,10.881542 -0.30385,23.868992 -0.98538,34.611862 -0.53392,13.18489 -11.36475,22.98489 -25.42265,22.4819 -11.878225,-0.23915 -23.073166,-6.24571 -24.814578,-23.35447 -0.406008,-11.82958 -0.204767,-23.65916 -0.176831,-35.488743 0.36228,-1.662918 1.07086,-2.742432 2.096083,-3.802021 z"
         style="fill:#275274;fill-opacity:1;stroke:#275274;stroke-width:0.26458332px;stroke-linecap:butt;stroke-linejoin:miter;stroke-opacity:1" />
      <path
         sodipodi:nodetypes="cccccccccccccc"
         inkscape:connector-curvature="0"
         id="path894"
         d="m 66.794181,217.39689 c 1.890093,-0.52878 2.805282,-1.34191 3.889621,-3.28606 l 26.020222,-52.57694 c 0.39364,-0.6541 0.930679,-1.86896 1.073,-3.01782 h 6.169746 c 0.0363,0.95731 0.18465,1.84744 0.5365,2.61544 l 24.54485,52.97932 c 0.6264,1.2324 1.24387,2.43456 2.27279,3.28606 h -6.56479 c 0.60641,-0.95897 0.92765,-1.85429 0.26825,-3.28606 l -23.51183,-51.70176 -26.089959,52.75105 c -0.322963,0.9402 -0.0062,1.82505 0.914464,2.23677 z"
         style="fill:#000000;fill-opacity:1;stroke:#000000;stroke-width:0.26458332px;stroke-linecap:butt;stroke-linejoin:miter;stroke-opacity:1" />
    </g>
  </g>
</svg>
